…
Notice that `str` also includes variable names, types, and examples of the data in each. This approach might be good as an initial check, but could also be overwhelming if you were only interested in knowing one aspect of the data.

Variable exploration
--------------------

Let's explore how life expectancy varies across continents.

#### Select out one of each type of variable:

``` r
cvsl <-select(gapminder, continent, lifeExp, pop) #Factor, #Number, and #Integer, respectively
cvsl # continents vs life expectancy
```

    ## # A tibble: 1,704 x 3
    ##    continent lifeExp      pop
    ##    <fct>       <dbl>    <int>
    ##  1 Asia         28.8  8425333
    ##  2 Asia         30.3  9240934
    ##  3 Asia         32.0 10267083
    ##  4 Asia         34.0 11537966
    ##  5 Asia         36.1 13079460
    ##  6 Asia         38.4 14880372
    ##  7 Asia         39.9 12881816
    ##  8 Asia         40.8 13867957
    ##  9 Asia         41.7 16317921
    ## 10 Asia         41.8 22227415
    ## # ... with 1,694 more rows
…
While the above seems correct, it is unsuccessful because `c()` returns only data with the combination of the two countries. The correct way to do this is to use `|`.

``` r
filter(gapminder, country=="Rwanda"|country=="Afghanistan")
```

    ## # A tibble: 24 x 6
    ##    country     continent  year lifeExp      pop gdpPercap
    ##    <fct>       <fct>     <int>   <dbl>    <int>     <dbl>
    ##  1 Afghanistan Asia       1952    28.8  8425333      779.
    ##  2 Afghanistan Asia       1957    30.3  9240934      821.
    ##  3 Afghanistan Asia       1962    32.0 10267083      853.
    ##  4 Afghanistan Asia       1967    34.0 11537966      836.
    ##  5 Afghanistan Asia       1972    36.1 13079460      740.
    ##  6 Afghanistan Asia       1977    38.4 14880372      786.
    ##  7 Afghanistan Asia       1982    39.9 12881816      978.
    ##  8 Afghanistan Asia       1987    40.8 13867957      852.
    ##  9 Afghanistan Asia       1992    41.7 16317921      649.
    ## 10 Afghanistan Asia       1997    41.8 22227415      635.
    ## # ... with 14 more rows
…
